{
  "routes": [
    {
      "method": "GET",
      "path": "/proxy/processes",
      "handler": "proxy.processes",
      "config": {
        "policies": []
      }
    },
    {
      "method": "POST",
      "path": "/proxy/processInstance",
      "handler": "proxy.create",
      "config": {
        "policies": []
      }
    },
    {
      "method": "GET",
      "path": "/proxy/status/:workflowInstanceId",
      "handler": "proxy.status",
      "config": {
        "policies": []
      }
    },
    {
      "method": "PUT",
      "path": "/proxy/variables/:workflowInstanceId",
      "handler": "proxy.editVariable",
      "config": {
        "policies": []
      }
    },
    {
      "method": "GET",
      "path": "/proxy/variables/:workflowInstanceId",
      "handler": "proxy.getVariables",
      "config": {
        "policies": []
      }
    },
    {
      "method": "GET",
      "path": "/proxy/activities/:workflowInstanceId",
      "handler": "proxy.getActivities",
      "config": {
        "policies": []
      }
    }
  ]
}
