{
  "kind": "collectionType",
  "collectionName": "variables",
  "info": {
    "name": "Variable",
    "description": ""
  },
  "options": {
    "increments": true,
    "timestamps": true,
    "draftAndPublish": true
  },
  "attributes": {
    "title": {
      "type": "string"
    },
    "description": {
      "type": "text"
    },
    "type": {
      "type": "enumeration",
      "enum": [
        "number",
        "string",
        "boolean"
      ],
      "required": true
    },
    "source": {
      "type": "enumeration",
      "enum": [
        "Input",
        "Pallet",
        "IRMA"
      ],
      "required": true
    },
    "slug": {
      "type": "string"
    },
    "schemaId": {
      "type": "string"
    },
    "issuer": {
      "type": "string"
    }
  }
}
